<?xml version="1.0" standalone="no"?>
<!DOCTYPE svg PUBLIC "-//W3C//DTD SVG 20010904//EN"
 "http://www.w3.org/TR/2001/REC-SVG-20010904/DTD/svg10.dtd">
<svg version="1.0" xmlns="http://www.w3.org/2000/svg"
 width="100.000000pt" height="104.000000pt" viewBox="0 0 100.000000 104.000000"
 preserveAspectRatio="xMidYMid meet">

<g transform="translate(0.000000,104.000000) scale(0.100000,-0.100000)"
fill="#000000" stroke="none">
<path d="M30 676 l0 -209 31 47 c34 51 90 98 163 136 45 25 46 26 46 75 0 27
-3 73 -6 102 l-7 52 -113 3 -114 3 0 -209z"/>
<path d="M960 510 c-17 -40 -96 -113 -159 -144 l-51 -26 0 -80 0 -80 115 0
115 0 0 180 c0 99 -2 180 -4 180 -2 0 -9 -13 -16 -30z"/>
</g>
</svg>
